データ解析（研究室用） - ADCP データの処理
…
dset_pol = dset_hr |> drop_na() |> 
  mutate(gr = cut_radians(rad)) |> 
  group_by(location, gr) |> print() |> 
  summarise(across(vel,
            list(n = ~length(!is.na(.)), 
                 m = ~mean(., na.rm = T))), .groups = "drop") |>
  group_by(location) |> 
  mutate(
    vel_sum = sum(vel_n),
    vel_n = vel_n / vel_sum) |> 
  ungroup()

# A tibble: 4,011 × 6
# Groups:   location, gr [23]
   datetime            location date           vel   rad gr   
   <dttm>              <chr>    <date>       <dbl> <dbl> <fct>
 1 2024-04-21 00:00:00 lower    2024-04-21 0.015    1.93 E    
 2 2024-04-21 00:00:00 middle   2024-04-21 0.0117   1.66 E    
 3 2024-04-21 00:00:00 upper    2024-04-21 0.015    3.30 S    
 4 2024-04-21 01:00:00 lower    2024-04-21 0.0133   2.18 SE   
 5 2024-04-21 01:00:00 middle   2024-04-21 0.015    2.82 S    
 6 2024-04-21 01:00:00 upper    2024-04-21 0.00833  2.15 SE   
 7 2024-04-21 02:00:00 lower    2024-04-21 0.0167   1.56 E    
 8 2024-04-21 02:00:00 middle   2024-04-21 0.0167   1.26 E    
 9 2024-04-21 02:00:00 upper    2024-04-21 0.0233   2.44 SE   
10 2024-04-21 03:00:00 lower    2024-04-21 0.025    1.80 E    
# ℹ 4,001 more rows
…
