データ解析（研究室用） - Redundancy Analysis
…
Standardize environmental data

The environmental variables should be standardized (i.e, find the z-score).

\[
z = \frac{x - \bar{x}}{s}
\] where \(x\) is the value, \(\bar{x}\) is the mean value of \(x\), and \(s\) is the standard deviation of \(x\). This data is already standardized.

envdata |> print(n = 3)

# A tibble: 147 × 10
  year  season station month depth_mean pla_10…¹ sed_d…² herbi…³ compe…⁴ temp_…⁵
  <fct> <fct>  <fct>   <fct>      <dbl>    <dbl>   <dbl>   <dbl>   <dbl>   <dbl>
1 2021  WS     St01    4         -0.904   -1.34   -0.904   1.84   -0.372    1.92
2 2021  WS     St02    4         -0.254   -1.03   -0.783   0.122  -0.673    1.20
3 2021  WS     St03    4          1.88    -0.151  -0.213   0.837   1.50    -1.32
# … with 144 more rows, and abbreviated variable names ¹​pla_100g_day_mean,
#   ²​sed_day_mean, ³​herbivorous_A_mean, ⁴​competing_A_mean, ⁵​temp_range_mean
…
