データ解析（研究室用） - 研究室の作図法
…
テーマの設定を適応するためには、次のコードを実行します。

showtext_auto()

データの読み込み

今回の図は形上湾の予備データを用います。 データは研究室のサーバにあるので、次のようコードを実行して、 データを読み込みましょう。 read_rds() の後の print() は読み込んだデータの最初の３行を コンソールに表示するために追加したが、なくてもいいです。

fname = "~/Lab_Data/standardized_figures/allcarbondata.rds"
dset = read_rds(fname) |> print(n = 3)

# A tibble: 107 × 8
  Core_length   LOI Mapping  Type    dry_mud    OC carbon_density carbon_content
        <dbl> <dbl> <chr>    <chr>     <dbl> <dbl>          <dbl>          <dbl>
1        52.5  7.97 Seagrass Seagra…    29.6  2.38         0.0171          0.704
2        52.5  9.43 Seagrass Seagra…    30.3  2.94         0.0217          0.890
3        52.5  7.29 Seagrass Seagra…    30.9  2.13         0.0160          0.658
# ℹ 104 more rows
…
